guid,name,account_type,commodity_guid,commodity_scu,non_std_scu,parent_guid,code,description,hidden,placeholder
56610ef5b3964f8fa24e10ee20b80e31,Root Account,ROOT,12f6ff8c04e44962aaa71c590dadc25d,100,0,,,,0,0
8967a8b9048d4181a08291874770def5,Assets,ASSET,12f6ff8c04e44962aaa71c590dadc25d,100,0,56610ef5b3964f8fa24e10ee20b80e31,,Assets,0,1
413236b568874d9f86812267b91e8ba4,Current Assets,ASSET,12f6ff8c04e44962aaa71c590dadc25d,100,0,8967a8b9048d4181a08291874770def5,,Current Assets,0,1
70cff1c5f36f478c85acf62ce825cc16,Checking Account,BANK,12f6ff8c04e44962aaa71c590dadc25d,100,0,413236b568874d9f86812267b91e8ba4,,Checking Account,0,0
b1bbffd2c652476585ab172fa6a619b1,Income,INCOME,12f6ff8c04e44962aaa71c590dadc25d,100,0,56610ef5b3964f8fa24e10ee20b80e31,,Income,0,0
a153406cb0854432bf7bd913eb15d226,Expenses,EXPENSE,12f6ff8c04e44962aaa71c590dadc25d,100,0,56610ef5b3964f8fa24e10ee20b80e31,,Expenses,0,0
19626f20de144c999f7ca27493792e24,Equity,EQUITY,12f6ff8c04e44962aaa71c590dadc25d,100,0,56610ef5b3964f8fa24e10ee20b80e31,,Equity,0,1
18fc20a6bab44291967e05a3348cd1f3,Opening Balances,EQUITY,12f6ff8c04e44962aaa71c590dadc25d,100,0,19626f20de144c999f7ca27493792e24,,Opening Balances,0,0
0cb599b3b4444c1bab370725f539686a,Template Root,ROOT,,0,0,,,,0,0
